{
  "formatVersion": 1,
  "database": {
    "version": 1,
    "identityHash": "af524142ef45b478d7b13856c5def40d",
    "entities": [
      {
        "tableName": "country",
        "createSql": "CREATE TABLE IF NOT EXISTS `${TABLE_NAME}` (`country_code` TEXT NOT NULL, `country_name` TEXT NOT NULL, `country_continent` TEXT NOT NULL, `risk_score` REAL NOT NULL, `advisory_sources_active` INTEGER NOT NULL, `description` TEXT NOT NULL, `updated_at` TEXT NOT NULL, `source` TEXT NOT NULL, PRIMARY KEY(`country_code`))",
        "fields": [
          {
            "fieldPath": "countryCode",
            "columnName": "country_code",
            "affinity": "TEXT",
            "notNull": true
          },
          {
            "fieldPath": "countryName",
            "columnName": "country_name",
            "affinity": "TEXT",
            "notNull": true
          },
          {
            "fieldPath": "countryContinent",
            "columnName": "country_continent",
            "affinity": "TEXT",
            "notNull": true
          },
          {
            "fieldPath": "advisory.countryScore",
            "columnName": "risk_score",
            "affinity": "REAL",
            "notNull": true
          },
          {
            "fieldPath": "advisory.activeSources",
            "columnName": "advisory_sources_active",
            "affinity": "INTEGER",
            "notNull": true
          },
          {
            "fieldPath": "advisory.countryMessage",
            "columnName": "description",
            "affinity": "TEXT",
            "notNull": true
          },
          {
            "fieldPath": "advisory.updatedAt",
            "columnName": "updated_at",
            "affinity": "TEXT",
            "notNull": true
          },
          {
            "fieldPath": "advisory.source",
            "columnName": "source",
            "affinity": "TEXT",
            "notNull": true
          }
        ],
        "primaryKey": {
          "columnNames": [
            "country_code"
          ],
          "autoGenerate": false
        },
        "indices": [],
        "foreignKeys": []
      }
    ],
    "views": [],
    "setupQueries": [
      "CREATE TABLE IF NOT EXISTS room_master_table (id INTEGER PRIMARY KEY,identity_hash TEXT)",
      "INSERT OR REPLACE INTO room_master_table (id,identity_hash) VALUES(42, 'af524142ef45b478d7b13856c5def40d')"
    ]
  }
}